DATE,AMOUNT,DETAILS,BALANCE,RECIPIENT
30/06/2022,"-4.99","PURCHASE #4","+105.41","Fortran"
29/06/2022,"-10.60","PURCHASE #3","+110.40","Denver Pallis"
28/06/2022,"+21.00","PURCHASE #2","+121.00",""
27/06/2022,"+100.00","PURCHASE #1","+100.00",""